\relax 
\providecommand\hyper@newdestlabel[2]{}
\catcode `"\active 
\providecommand\HyperFirstAtBeginDocument{\AtBeginDocument}
\HyperFirstAtBeginDocument{\ifx\hyper@anchor\@undefined
\global\let\oldcontentsline\contentsline
\gdef\contentsline#1#2#3#4{\oldcontentsline{#1}{#2}{#3}}
\global\let\oldnewlabel\newlabel
\gdef\newlabel#1#2{\newlabelxx{#1}#2}
\gdef\newlabelxx#1#2#3#4#5#6{\oldnewlabel{#1}{{#2}{#3}}}
\AtEndDocument{\ifx\hyper@anchor\@undefined
\let\contentsline\oldcontentsline
\let\newlabel\oldnewlabel
\fi}
\fi}
\global\let\hyper@last\relax 
\gdef\HyperFirstAtBeginDocument#1{#1}
\providecommand\HyField@AuxAddToFields[1]{}
\providecommand\HyField@AuxAddToCoFields[2]{}
\select@language{russian}
\@writefile{toc}{\select@language{russian}}
\@writefile{lof}{\select@language{russian}}
\@writefile{lot}{\select@language{russian}}
\@writefile{toc}{\contentsline {schapter}{Preface}{3}{chapter*.2}}
\select@language{english}
\@writefile{toc}{\select@language{english}}
\@writefile{lof}{\select@language{english}}
\@writefile{lot}{\select@language{english}}
\@writefile{toc}{\contentsline {schapter}{Introduction}{4}{chapter*.3}}
\select@language{english}
\@writefile{toc}{\select@language{english}}
\@writefile{lof}{\select@language{english}}
\@writefile{lot}{\select@language{english}}
\select@language{russian}
\@writefile{toc}{\select@language{russian}}
\@writefile{lof}{\select@language{russian}}
\@writefile{lot}{\select@language{russian}}
\@writefile{toc}{\contentsline {chapter}{\numberline {1}The formula of Green-Ostrogradsky}{5}{chapter.1}}
\@writefile{toc}{\contentsline {section}{\numberline {1.1}The formula}{5}{section.1.1}}
\@writefile{lof}{\contentsline {figure}{\numberline {1.1}{\ignorespaces Grin-Ostrograskij.}}{5}{figure.1.1}}
\newlabel{Grin-Ostrograskij}{{1.1}{5}{Grin-Ostrograskij}{figure.1.1}{}}
\@writefile{toc}{\contentsline {chapter}{\numberline {2}The Schrodinger equation for a hydrogen-like atom}{6}{chapter.2}}
\@writefile{toc}{\contentsline {section}{\numberline {2.1}The formula}{6}{section.2.1}}
\@writefile{lof}{\contentsline {figure}{\numberline {2.1}{\ignorespaces Shroedinger.}}{6}{figure.2.1}}
\newlabel{shroedinger}{{2.1}{6}{Shroedinger}{figure.2.1}{}}
\@writefile{toc}{\contentsline {chapter}{\numberline {3}The neutron diffusion equation}{7}{chapter.3}}
\@writefile{toc}{\contentsline {section}{\numberline {3.1}The formula}{7}{section.3.1}}
\@writefile{toc}{\contentsline {chapter}{\numberline {4}The diffusion-convection equation}{8}{chapter.4}}
\@writefile{toc}{\contentsline {section}{\numberline {4.1}The formula}{8}{section.4.1}}
\@writefile{lof}{\contentsline {figure}{\numberline {4.1}{\ignorespaces Convection-diffusion.}}{8}{figure.4.1}}
\newlabel{convection-diffusion}{{4.1}{8}{Convection-diffusion}{figure.4.1}{}}
